{
  "images" : [
    {
      "idiom" : "universal",
      "filename" : "d6f078c9da8e370ea084b764f7e4a994 copy.jpg",
      "scale" : "1x"
    },
    {
      "idiom" : "universal",
      "scale" : "2x"
    },
    {
      "idiom" : "universal",
      "scale" : "3x"
    }
  ],
  "info" : {
    "version" : 1,
    "author" : "xcode"
  }
}